// Jest Snapshot v1, https://goo.gl/fbAQLP

exports[`MultipleChoice actions should create default action action 1`] = `
Object {
  "type": "commoop.formats.Highlight.DEFAULT_ACTION",
}
`;

exports[`MultipleChoice actions should create delete highlights action 1`] = `
Object {
  "highlights": "type:TextRange|0$15$1$highlight$hts|16$20$2$highlight$hts",
  "type": "commoop.formats.Highlight.DELETE_HIGHLIGHT",
}
`;

exports[`MultipleChoice actions should create set highlights action 1`] = `
Object {
  "highlights": "type:TextRange|0$15$1$highlight$hts|16$20$2$highlight$hts",
  "type": "commoop.formats.Highlight.SET_HIGHLIGHTS",
}
`;
