// Jest Snapshot v1, https://goo.gl/fbAQLP

exports[`assessment actions should create change active item action 1`] = `
Object {
  "payload": Object {
    "id": 1,
  },
  "type": "commoop.user.assessment.CHANGE_ACTIVE_ITEM",
}
`;

exports[`assessment actions should create dispatch item action action 1`] = `
Object {
  "payload": Object {
    "action": Object {
      "id": 1,
      "type": "checked",
    },
    "id": undefined,
    "reducer": [Function],
  },
  "type": "commoop.user.assessment.DISPATCH_ITEM_ACTION",
}
`;

exports[`assessment actions should create fetch items action 1`] = `
Object {
  "meta": Object {
    "offline": Object {
      "commit": Object {
        "type": "commoop.user.assessment.FETCH_ITEMS_COMMIT",
      },
      "effect": Object {
        "method": "GET",
        "params": Object {
          "session_hash": "AAAA",
        },
        "url": "v1/sessions",
      },
      "rollback": Object {
        "type": "commoop.user.assessment.FETCH_ITEMS_ROLLBACK",
      },
    },
  },
  "type": "commoop.user.assessment.FETCH_ITEMS",
}
`;

exports[`assessment actions should create init action 1`] = `
Object {
  "type": "commoop.user.assessment.INIT",
}
`;

exports[`assessment actions should create submit solutions action 1`] = `
Object {
  "meta": Object {
    "offline": Object {
      "commit": Object {
        "type": "commoop.user.assessment.SUBMIT_SOLUTIONS_COMMIT",
      },
      "effect": Object {
        "data": Object {
          "item_actions": Array [
            Array [
              Object {
                "type": "change input",
                "value": "hallo",
              },
            ],
            Array [
              Object {
                "type": "checked",
              },
            ],
          ],
          "item_notes": undefined,
          "item_solutions": Array [
            Object {
              "answer": "hallo",
            },
            Object {
              "choices": Array [
                Object {
                  "checked": true,
                  "id": 1,
                },
              ],
            },
          ],
          "session_hash": "AAAA",
        },
        "method": "POST",
        "url": "v1/sessions",
      },
      "rollback": Object {
        "type": "commoop.user.assessment.SUBMIT_SOLUTIONS_ROLLBACK",
      },
    },
  },
  "type": "commoop.user.assessment.SUBMIT_SOLUTIONS",
}
`;
